{
  "log" : {
    "version" : "1.2",
    "pages" : [ ],
    "entries" : [ {
      "startedDateTime" : "2023-09-21T14:41:00.919Z",
      "request" : {
        "method" : "GET",
        "url" : "http://130.162.151.221/moviepeople",
        "httpVersion" : "",
        "cookies" : [ ],
        "headers" : [ ],
        "queryString" : [ ],
        "headersSize" : 0,
        "bodySize" : 0,
        "comment" : ""
      },
      "response" : {
        "status" : 200,
        "statusText" : "",
        "httpVersion" : "",
        "cookies" : [ ],
        "headers" : [ {
          "name" : "Transfer-Encoding",
          "value" : "chunked"
        }, {
          "name" : "Connection",
          "value" : "keep-alive"
        }, {
          "name" : "#status#",
          "value" : "HTTP/1.1 200 "
        }, {
          "name" : "Date",
          "value" : "Thu, 21 Sep 2023 14:41:00 GMT"
        }, {
          "name" : "Content-Type",
          "value" : "application/json;charset=UTF-8"
        } ],
        "content" : {
          "size" : 10883,
          "mimeType" : "application/json;charset=UTF-8",
          "text" : "{\"content\":[{\"id\":20196748,\"name\":\"김영웅\",\"role\":\"배우\",\"filmography\":\"우리 사랑이 향기로 남을 때|공기살인|한산 리덕스|한산: 용의 출현|로드킬|암수살인|판도라|그놈이다|나의 독재자|해무(海霧)|수상한 그녀|남자사용설명서|남쪽으로 튀어|도둑들|우리 이웃의 범죄|불량남녀|의형제|식객2 : 김치전쟁|집행자|미인도|마이 뉴 파트너|바람피기 좋은 날|구미호 가족|사생결단|간첩 리철진\"},{\"id\":20162861,\"name\":\"김영경\",\"role\":\"배우\",\"filmography\":\"백두산|비스트|로망|바람피기 좋은 날\"},{\"id\":10070482,\"name\":\"진민경\",\"role\":\"분장\",\"filmography\":\"오! 문희|감쪽같은 그녀|나의 특별한 형제|아이 캔 스피크|열정같은소리하고있네|성난 변호사|권법형사 : 차이나타운|후궁 : 제왕의 첩|고지전|체포왕|황해|시|파주|미쓰 홍당무|숙명|마지막 선물|어깨 너머의 연인|바람피기 좋은 날|모노폴리|형사 Duelist|그때 그 사람들|효자동 이발사|올드보이|살인의 추억|굳세어라 금순아\"},{\"id\":20124482,\"name\":\"임종혁\",\"role\":\"특수효과팀\",\"filmography\":\"탄생|외계+인 1부|브로커|스위치|한산 리덕스|한산: 용의 출현|반도|강철비2: 정상회담|시동|광대들: 풍문조작단|봉오동 전투|돌멩이|돈|사바하|뺑반|성난황소|마녀|버닝|대장 김창수|악녀|살인자의 기억법|보안관|프리즌|조작된 도시|더 킹|덕혜옹주|아가씨|탐정 홍길동: 사라진 마을|검사외전|오빠생각|검은 사제들|연평해전|좋은 친구들|역린|유령|소수의견|끝까지 간다|남자가 사랑할 때|용의자|세계일주|전설의 주먹|베를린|회사원|간첩|간기남|마이 웨이|오싹한 연애|푸른소금|최종병기 활|고지전|작은 연못|비밀애|주유소 습격사건 2|전우치|마더|7급 공무원|권순분여사 납치사건|해부학 교실|바람피기 좋은 날|최강로맨스|거룩한 계보|뚝방전설|아랑|구타유발자들|마이 캡틴 김대출\"},{\"id\":20111869,\"name\":\"황정민\",\"role\":\"배우\",\"filmography\":\"다음 소희|고속도로 가족|미션 파서블|일주일 만에 사랑할 순 없다|돈|사바하|어른도감|1987|7호실|사랑이 이긴다|조선명탐정 : 사라진 놉의 딸|카트|나의 사랑 나의 신부|제보자|수상한 그녀|결혼전야|롤러코스터|명왕성|돈의 맛|밍크코트|하녀|바람피기 좋은 날|박수칠 때 떠나라|지구를 지켜라|산부인과|그녀|이웃에 방해가 되지 않는 선에서|꽃님이|누룽지|어떤 시선\"},{\"id\":10006401,\"name\":\"김혜진\",\"role\":\"광고디자인\",\"filmography\":\"대무가|헤로니모|교회오빠|캐치미|하울링|푸른소금|숨|시라노; 연애조작단|꿈은 이루어진다|꽃비|웨딩드레스|구르믈 버서난 달처럼|불꽃처럼 나비처럼|박쥐|고고 70|모던보이|크로싱|마이 뉴 파트너|우리 생애 최고의 순간|행복|브라보 마이 라이프|뷰티풀 선데이|바람피기 좋은 날|우아한 세계|언니가 간다|아이스케키|파랑주의보|광식이 동생 광태|가발|잠복근무|태풍태양|몽정기2|귀여워|마지막 늑대|봄날의 곰을 좋아하세요?|아카시아(Acacia)|첫사랑 사수 궐기 대회|튜브|화성으로 간 사나이|보리울의 여름|죽어도 좋아|몽정기|중독|2424|오아시스|해적 디스코왕 되다|결혼은, 미친짓이다|집으로...|생활의 발견|나쁜 남자|마리이야기|흑수선|눈물\"},{\"id\":20125115,\"name\":\"조나래\",\"role\":\"스토리보드\",\"filmography\":\"소울메이트|이상한 나라의 수학자|두번할까요|기방도령|어쩌다, 결혼|원더풀 고스트|미쓰백|덕구|엄마의 공책|흥부: 글로 세상을 바꾼 자|서서평, 천천히 평온하게|싱글라이더|형|위대한 소원|두 번째 스물|그날의 분위기|앨리스: 원더랜드에서 온 소년|미쓰 와이프|패션왕|설해|피끓는 청춘|응징자|스톤|연애의 온도|강철대오:구국의 철가방|스타: 빛나는 사랑|미확인 동영상 : 절대클릭금지|화차|도가니|나는 아빠다|베스트셀러|신기전|마이 파더|바람피기 좋은 날|무서운 이야기 2 '절벽'\"},{\"id\":20147898,\"name\":\"장영주\",\"role\":\"액션/스턴트팀\",\"filmography\":\"용루각2: 신들의 밤|용루각: 비정도시|디바|창궐|안시성|협상|물괴|게이트|1987|리얼|판도라|인천상륙작전|봉이 김선달|시간이탈자|조선마술사|히말라야|서부전선|치외법권|제 7기사단|경성학교: 사라진 소녀들|살인의뢰|신의 한 수|황제를 위하여|들개|변호인|감시자들|파파로티|스톤|전설의 주먹|신세계|남쪽으로 튀어|베를린|간첩|공모자들|이웃사람|도둑들|미쓰GO|가비|범죄와의 전쟁: 나쁜놈들 전성시대|황해|사람을 찾습니다|박쥐|좋은 놈, 나쁜 놈, 이상한 놈 |강철중: 공공의 적 1-1|숙명|다찌마와리|바람피기 좋은 날|최강로맨스|우아한 세계|싸이보그지만 괜찮아|누가 그녀와 잤을까?|뚝방전설|배심원들\"},{\"id\":20164083,\"name\":\"이태오\",\"role\":\"촬영\",\"filmography\":\"봉오동 전투|마녀|브이아이피|커튼콜|도리화가|블랙가스펠2: 소울을 찾는 여정가운데 만난 사람들|고백할 수 없는|해적: 바다로 간 산적|돼지 같은 여자|블랙 가스펠|퀵|혈투|하모니|해운대|마이 뉴 파트너|펀치레이디|궁녀|바람피기 좋은 날|아랑|늑대의 유혹\"},{\"id\":10006380,\"name\":\"김혜수\",\"role\":\"배우\",\"filmography\":\"밀수|내가 죽던 날|국가부도의 날|미옥|굿바이 싱글|차이나타운|관상|도둑들|도둑들 영화를 만들다|이층의 악당|모던보이|열한번째 엄마|좋지 아니한가|바람피기 좋은 날|타짜|분홍신|얼굴 없는 미녀|YMCA야구단|쓰리|쓰리 메모리즈|신라의 달밤|닥터 K|투 타이어드 투 다이|찜|미스터 콘돔|닥터 봉|남자는 괴로워|영원한 제국|블루 시걸|첫사랑|잃어버린 너|오세암(극영화)|어른들은 몰라요|그 마지막 겨울|수렁에서 건진 내 딸 2|깜보|터미널 지하다방|즐거운 나의 집\"},{\"id\":10040360,\"name\":\"신미경\",\"role\":\"광고디자인\",\"filmography\":\"낮에는 덥고 밤에는 춥고|작은새와 돼지씨|좋은 사람|내언니전지현과 나|푸른소금|시라노; 연애조작단|백야행|나는 갈매기|해운대|여고괴담 5|그림자 살인|쌍화점|로맨틱 아일랜드|울학교 이티|신기전|걸스카우트|비스티 보이즈|숙명|원스어폰어타임|트럭|라듸오 데이즈|가면|우리 동네|두 사람이다|기담|꽃미남 연쇄 테러 사건|화려한 휴가|므이|1번가의 기적|미녀는 괴로워|그해 여름|폭력써클|해변의 여인|스승의 은혜|황금시대\"},{\"id\":20115077,\"name\":\"김용수\",\"role\":\"조명장비\",\"filmography\":\"캐리 러브콘서트 케이팝|캐리tv 러브콘서트 더 무비|응징자|나는 왕이로소이다|도둑들|연가시|후궁 : 제왕의 첩|건축학개론|미확인 동영상 : 절대클릭금지|코리아|최종병기 활|퀵|글러브|나탈리|무적자|시|비밀애|전우치|불신지옥|기다리다 미쳐|바람피기 좋은 날|조용한 세상|괴물|비열한 거리|댄서의 순정|파송송 계란탁|여자는 남자의 미래다|맹부삼천지교|그녀를 모르면 간첩|영어완전정복|질투는 나의 힘|마들렌|피도 눈물도 없이\"},{\"id\":10027763,\"name\":\"민경만\",\"role\":\"그립\",\"filmography\":\"다시, 봄|집으로 가는 길|감기|이파네마 소년|포화속으로|끝과 시작|주유소 습격사건 2|킬 미|김씨표류기|비스티 보이즈|색다른 동거|전투의 매너|다찌마와리|뜨거운 것이 좋아|내 사랑|펀치레이디|바람피기 좋은 날|눈부신 날에|우리들의 행복한 시간|괴물|새드무비|미스터 주부퀴즈왕\"},{\"id\":20377346,\"name\":\"김지수\",\"role\":\"VFX 아티스트\",\"filmography\":\"모어|아이돌레시피|짬뽕비권|보이스|해적: 도깨비 깃발|기생충|사자|PMC: 더 벙커|신과함께-인과 연|신과함께-죄와 벌|대립군|리얼\"},{\"id\":20179662,\"name\":\"정부용\",\"role\":\"VFX 아티스트\",\"filmography\":\"비상선언|외계+인 1부|모가디슈|해적: 도깨비 깃발|백두산|미스터 주: 사라진 VIP|PMC: 더 벙커|대립군|리얼|슈퍼 프렌즈|서부전선|해적: 바다로 간 산적|미스터 고|코알라 키드 : 영웅의 탄생\"},{\"id\":20199234,\"name\":\"이슬\",\"role\":\"VFX 매니지먼트\",\"filmography\":\"비상선언|외계+인 1부|모가디슈|해적: 도깨비 깃발|반도|백두산|봉오동 전투|기생충|사자|PMC: 더 벙커|서부전선|너를 봤어\"},{\"id\":20340930,\"name\":\"이송희\",\"role\":\"VFX 아티스트\",\"filmography\":\"비상선언|외계+인 1부|모가디슈|해적: 도깨비 깃발|반도|백두산|기생충|사자|PMC: 더 벙커|7년의 밤|강철비|장산범\"},{\"id\":20179726,\"name\":\"정여진\",\"role\":\"VFX 아티스트\",\"filmography\":\"비상선언|외계+인 1부|승리호|해적: 도깨비 깃발|백두산|미스터 주: 사라진 VIP|PMC: 더 벙커|신과함께-인과 연|독전|1987|신과함께-죄와 벌|대립군|살인자의 기억법|리얼|슈퍼 프렌즈|서부전선|해적: 바다로 간 산적|미스터 고|코알라 키드 : 영웅의 탄생\"},{\"id\":20218317,\"name\":\"장효석\",\"role\":\"VFX 아티스트\",\"filmography\":\"늑대사냥|비상선언|외계+인 1부|데시벨|모가디슈|승리호|해적: 도깨비 깃발|반도|백두산|봉오동 전투|기생충|미스터 주: 사라진 VIP|사자|PMC: 더 벙커|신과함께-인과 연|1987|신과함께-죄와 벌|침묵|대립군|리얼|조작된 도시|고산자, 대동여지도|위대한 소원|나홀로 휴가|그날의 분위기|열정같은소리하고있네|오피스|쓰리 썸머 나잇|손님|차이나타운\"},{\"id\":20146157,\"name\":\"차동호\",\"role\":\"VFX 슈퍼바이저\",\"filmography\":\"비상선언|외계+인 1부|모가디슈|승리호|해적: 도깨비 깃발|반도|백두산|봉오동 전투|기생충|미스터 주: 사라진 VIP|사자|PMC: 더 벙커|신과함께-인과 연|독전|1987|신과함께-죄와 벌|7호실|침묵|대립군|살인자의 기억법|리얼|조작된 도시|다른 길이 있다|서부전선|해적: 바다로 간 산적|미스터 고|가비|푸른소금|모비딕|심장이 뛴다|이파네마 소년|부당거래|해결사|죽이고 싶은|해운대\"}],\"pageable\":{\"sort\":{\"sorted\":false,\"unsorted\":true,\"empty\":true},\"pageSize\":20,\"pageNumber\":0,\"offset\":0,\"paged\":true,\"unpaged\":false},\"last\":false,\"totalPages\":510,\"totalElements\":10196,\"first\":true,\"sort\":{\"sorted\":false,\"unsorted\":true,\"empty\":true},\"size\":20,\"number\":0,\"numberOfElements\":20,\"empty\":false}",
          "comment" : ""
        },
        "redirectURL" : "",
        "headersSize" : 119,
        "bodySize" : -1,
        "comment" : ""
      },
      "cache" : { },
      "timings" : {
        "comment" : "",
        "send" : 0,
        "wait" : 0,
        "dns" : -1,
        "ssl" : -1,
        "blocked" : -1,
        "connect" : 0,
        "receive" : 0
      },
      "comment" : "",
      "_katalonRequestInformation" : {
        "name" : "2",
        "testObjectId" : "Object Repository/Movie People API/Movie People REST API Collection",
        "harId" : "685a30c3-7b6d-41f7-a522-297a525d0338",
        "reportFolder" : null
      },
      "time" : 0
    } ],
    "comment" : ""
  }
}