{
  "log" : {
    "version" : "1.2",
    "pages" : [ ],
    "entries" : [ {
      "startedDateTime" : "2023-09-21T14:41:01.349Z",
      "request" : {
        "method" : "GET",
        "url" : "http://130.162.151.221/moviepeople/filmography/터미네이터",
        "httpVersion" : "",
        "cookies" : [ ],
        "headers" : [ ],
        "queryString" : [ ],
        "headersSize" : 0,
        "bodySize" : 0,
        "comment" : ""
      },
      "response" : {
        "status" : 200,
        "statusText" : "",
        "httpVersion" : "",
        "cookies" : [ ],
        "headers" : [ {
          "name" : "Transfer-Encoding",
          "value" : "chunked"
        }, {
          "name" : "Connection",
          "value" : "keep-alive"
        }, {
          "name" : "#status#",
          "value" : "HTTP/1.1 200 "
        }, {
          "name" : "Date",
          "value" : "Thu, 21 Sep 2023 14:41:01 GMT"
        }, {
          "name" : "Content-Type",
          "value" : "application/json;charset=UTF-8"
        } ],
        "content" : {
          "size" : 5571,
          "mimeType" : "application/json;charset=UTF-8",
          "text" : "{\"content\":[{\"id\":10076646,\"name\":\"콜비 조핸슨\",\"role\":\"배우\",\"filmography\":\"에이리언 터미네이터\"},{\"id\":10064950,\"name\":\"카반 스미스\",\"role\":\"배우\",\"filmography\":\"에이리언 터미네이터\"},{\"id\":10062936,\"name\":\"제레미 런던\",\"role\":\"배우\",\"filmography\":\"데미갓|에이리언 지구대침공|익스트림 터미네이터 TR|드래곤 마스터|키스 미 어게인|지하 세계의 인디아나 존스|킬러 페이스|몰래츠\"},{\"id\":10083791,\"name\":\"폴 질러\",\"role\":\"감독\",\"filmography\":\"타임트랩 워|뮤턴트 둠스데이|지구대충돌|에이리언 터미네이터|알래스카 대지진|스톤헨지 아포칼립스|잃어버린 세계-지구 속으로|바다의 괴수|쏠라 어택|안드로이드 : 지구 최후의 전쟁|스웜드|화이어 파이트|오프 리미트|미스 베어 |더블 헌터 |더블 서스피션|트릭|고스트 스톰\"},{\"id\":10023159,\"name\":\"마이클 빈\",\"role\":\"배우\",\"filmography\":\"몰록 제물이 된 아이들|블랙 쉐도우|히든 인 더 우즈|탭 아웃|불량변호사|디바이드|사이코패스|쉐도우 가드|마게도|아트 오브 워|체인 오브 커맨드|아메리칸 드래곤|마이클 빈의 죽음의 표적|마이클 빈의 블라인드|단판승부 |K2|시한폭탄|특전대네이비 씰|심연|세븐 싸인|에이리언 2 |터미네이터 \"},{\"id\":20126368,\"name\":\"맷 스미스\",\"role\":\"배우\",\"filmography\":\"모비우스|라스트 나잇 인 소호|오피셜 시크릿|오만과 편견 그리고 좀비|터미네이터 제니시스|로스트리버|움\"},{\"id\":10050859,\"name\":\"다요 오케니이\",\"role\":\"배우\",\"filmography\":\"블랙 엠페러|터미네이터 제니시스\"},{\"id\":10091423,\"name\":\"J.K. 시몬스\",\"role\":\"배우\",\"filmography\":\"팜 스프링스|21 브릿지: 테러 셧다운 |해피 어게인|저스티스 리그|패트리어트 데이|아임 낫 히어|레이크 |라라랜드|어카운턴트|드림 쏭|나의 사랑, 그리스|쿵푸팬더3|터미네이터 제니시스|고양이 살인사건|위플래쉬|뮤직 네버 스탑|웨이 오브 워\"},{\"id\":10041650,\"name\":\"아론 V. 윌리엄슨\",\"role\":\"배우\",\"filmography\":\"터미네이터 제니시스\"},{\"id\":10091623,\"name\":\"에밀리아 클라크\",\"role\":\"배우\",\"filmography\":\"어메이징 모리스|살인 매뉴얼|라스트 크리스마스|한 솔로: 스타워즈 스토리|보이스 프롬 더 스톤|미 비포 유|터미네이터 제니시스\"},{\"id\":10076441,\"name\":\"코트니 B. 반스\",\"role\":\"배우\",\"filmography\":\"벤 이즈 백|미이라|터미네이터 제니시스|페이스 다운|뉴욕 캅|에어이글|허클베리 핀의 모험\"},{\"id\":10063725,\"name\":\"제이슨 클락\",\"role\":\"배우\",\"filmography\":\"패닉 런|블랙 사이트|실크 로드|세레니티|윈체스터|공포의 묘지|퍼스트맨|철의 심장을 가진 남자|에베레스트|터미네이터 제니시스|혹성탈출: 반격의 서막|제로 다크 서티|로우리스: 나쁜 영웅들|텍사스 킬링 필드 |휴먼 컨트랙트\"},{\"id\":10044279,\"name\":\"앨런 테일러\",\"role\":\"감독\",\"filmography\":\"터미네이터 제니시스|토르: 다크 월드|벌거벗은 임금님\"},{\"id\":10041170,\"name\":\"아놀드 슈왈제네거\",\"role\":\"배우\",\"filmography\":\"아이언 마스크: 용패지미|터미네이터: 다크 페이트|킬링 군터|애프터매스|터미네이터 제니시스|매기|익스펜더블 3|사보타지: 무삭제|사보타지|이스케이프 플랜|라스트 스탠드|익스펜더블 2|캐피탈리즘|애니 레보비츠: 렌즈를 통해 들여다본 삶|터미네이터 3|콜래트럴 데미지|6번째 날|엔드 오브 데이즈|배트맨 앤 로빈|솔드 아웃 |이레이저 |쥬니어 |트루 라이즈 |크리스마스 인 코네티컷|터미네이터 2 : 심판의 날 감독판|터미네이터2 3D|유치원에 간 사나이|토탈리콜|런닝맨|고릴라 |코만도 |레드 소냐 |코난2-디스트로이어|터미네이터 |코난-바바리안\"},{\"id\":10081776,\"name\":\"팀 밀러\",\"role\":null,\"filmography\":\"터미네이터: 다크 페이트|데드풀\"},{\"id\":10025100,\"name\":\"맥켄지 데이비스\",\"role\":\"배우\",\"filmography\":\"더 터닝 |크리스마스에는 행복이|터미네이터: 다크 페이트|툴리|블레이드 러너 2049\"},{\"id\":10008943,\"name\":\"닉 스탈\",\"role\":\"배우\",\"filmography\":\"세인트 세이야: 더 비기닝|O.J. 심슨 사건 파일|헌터 헌터|아프칸 솔져스|온 디 인사이드|388 아레타 에비뉴|메스카다|미러 2|슬립워킹|은행터는 법|터미네이터 3|타부|침실에서|불리|선셋 스트립|크레들 베이\"},{\"id\":20166057,\"name\":\"제이 코트니\",\"role\":\"배우\",\"filmography\":\"졸트|더 수어사이드 스쿼드|블랙 사이트|어니스트 씨프|스톰 보이|사채왕 페그|프리즌 브레이크 : 이스케이프 플랜|수어사이드 스쿼드|터미네이터 제니시스|워터 디바이너|펠로니|프랑켄슈타인: 불멸의 영웅|다이하드: 굿 데이 투 다이\"},{\"id\":10077664,\"name\":\"가브리엘 루나\",\"role\":\"배우\",\"filmography\":\"터미네이터: 다크 페이트\"},{\"id\":10032814,\"name\":\"나탈리아 레이즈\",\"role\":\"배우\",\"filmography\":\"서머저블|터미네이터: 다크 페이트|마약 기생충\"}],\"pageable\":{\"sort\":{\"sorted\":false,\"unsorted\":true,\"empty\":true},\"pageSize\":20,\"pageNumber\":0,\"offset\":0,\"paged\":true,\"unpaged\":false},\"last\":false,\"totalPages\":3,\"totalElements\":53,\"first\":true,\"sort\":{\"sorted\":false,\"unsorted\":true,\"empty\":true},\"numberOfElements\":20,\"size\":20,\"number\":0,\"empty\":false}",
          "comment" : ""
        },
        "redirectURL" : "",
        "headersSize" : 119,
        "bodySize" : -1,
        "comment" : ""
      },
      "cache" : { },
      "timings" : {
        "comment" : "",
        "send" : 0,
        "wait" : 0,
        "dns" : -1,
        "ssl" : -1,
        "blocked" : -1,
        "connect" : 0,
        "receive" : 0
      },
      "comment" : "",
      "_katalonRequestInformation" : {
        "name" : "4",
        "testObjectId" : "Object Repository/Movie People API/Movie People REST API By Filmography",
        "harId" : "7e7e72fa-80aa-4815-851b-c4be8f502be7",
        "reportFolder" : null
      },
      "time" : 0
    } ],
    "comment" : ""
  }
}